{"1": 1,
 "51": 2,
 "2": 3,
 "52": 4,
 "3": 5,
 "53": 6,
 "4": 7,
 "54": 8,
 "5": 9,
 "55": 10,
 "6": 11,
 "56": 12,
 "7": 13,
 "57": 14,
 "8": 15,
 "58": 16,
 "9": 17,
 "59": 18,
 "10": 19,
 "60": 20,
 "11": 21,
 "61": 22,
 "12": 23,
 "62": 24,
 "13": 25,
 "63": 26,
 "14": 27,
 "64": 28,
 "15": 29,
 "65": 30,
 "16": 31,
 "66": 32,
 "17": 33,
 "67": 34,
 "18": 35,
 "68": 36,
 "19": 37,
 "69": 38,
 "20": 39,
 "70": 40,
 "21": 41,
 "71": 42,
 "22": 43,
 "72": 44,
 "23": 45,
 "73": 46,
 "24": 47,
 "74": 48,
 "25": 49,
 "75": 50,
 "26": 51,
 "76": 52,
 "27": 53,
 "77": 54,
 "28": 55,
 "78": 56,
 "29": 57,
 "79": 58,
 "30": 59,
 "80": 60,
 "31": 61,
 "81": 62,
 "32": 63,
 "82": 64,
 "33": 65,
 "83": 66,
 "34": 67,
 "84": 68,
 "35": 69,
 "85": 70,
 "36": 71,
 "86": 72,
 "37": 73,
 "87": 74,
 "38": 75,
 "88": 76,
 "39": 77,
 "89": 78,
 "40": 79,
 "90": 80,
 "41": 81,
 "91": 82,
 "42": 83,
 "92": 84,
 "43": 85,
 "93": 86,
 "44": 87,
 "94": 88,
 "45": 89,
 "95": 90,
 "46": 91,
 "96": 92,
 "47": 93,
 "97": 94,
 "48": 95,
 "98": 96}
